<?xml version="1.0" encoding="UTF-8" standalone="no"?>
<!DOCTYPE svg PUBLIC "-//W3C//DTD SVG 1.1//EN"
 "http://www.w3.org/Graphics/SVG/1.1/DTD/svg11.dtd">
<!-- Generated by graphviz version 2.40.1 (20161225.0304)
 -->
<!-- Title: dependencies Pages: 1 -->
<svg width="2084pt" height="284pt"
 viewBox="0.00 0.00 2084.00 284.00" xmlns="http://www.w3.org/2000/svg" xmlns:xlink="http://www.w3.org/1999/xlink">
<g id="graph0" class="graph" transform="scale(1 1) rotate(0) translate(4 280)">
<title>dependencies</title>
<polygon fill="#ffffff" stroke="transparent" points="-4,4 -4,-280 2080,-280 2080,4 -4,4"/>
<text text-anchor="start" x="1017.0091" y="-42.4" font-family="sans-serif" font-weight="bold" font-size="14.00" fill="#000000">Legend</text>
<polygon fill="#ffffb3" stroke="transparent" points="804,-10 804,-30 824,-30 824,-10 804,-10"/>
<text text-anchor="start" x="827.629" y="-15.4" font-family="sans-serif" font-size="14.00" fill="#000000"> &#160;Declarations</text>
<polygon fill="#8dd3c7" stroke="transparent" points="917,-10 917,-30 937,-30 937,-10 917,-10"/>
<text text-anchor="start" x="940.7251" y="-15.4" font-family="sans-serif" font-size="14.00" fill="#000000"> &#160;Module</text>
<polygon fill="#80b1d3" stroke="transparent" points="1003,-10 1003,-30 1023,-30 1023,-10 1003,-10"/>
<text text-anchor="start" x="1026.7812" y="-15.4" font-family="sans-serif" font-size="14.00" fill="#000000"> &#160;Bootstrap</text>
<polygon fill="#fdb462" stroke="transparent" points="1100,-10 1100,-30 1120,-30 1120,-10 1100,-10"/>
<text text-anchor="start" x="1123.6732" y="-15.4" font-family="sans-serif" font-size="14.00" fill="#000000"> &#160;Providers</text>
<polygon fill="#fb8072" stroke="transparent" points="1196,-10 1196,-30 1216,-30 1216,-10 1196,-10"/>
<text text-anchor="start" x="1219.7258" y="-15.4" font-family="sans-serif" font-size="14.00" fill="#000000"> &#160;Exports</text>
<g id="clust1" class="cluster">
<title>cluster_AppModule</title>
<polygon fill="none" stroke="#000000" stroke-dasharray="1,5" points="8,-70 8,-268 2068,-268 2068,-70 8,-70"/>
</g>
<g id="clust2" class="cluster">
<title>cluster_AppModule_declarations</title>
<polygon fill="none" stroke="#000000" points="528,-78 528,-130 2060,-130 2060,-78 528,-78"/>
</g>
<g id="clust13" class="cluster">
<title>cluster_AppModule_imports</title>
<polygon fill="none" stroke="#000000" points="428,-78 428,-130 520,-130 520,-78 428,-78"/>
</g>
<g id="clust15" class="cluster">
<title>cluster_AppModule_bootstrap</title>
<polygon fill="none" stroke="#000000" points="862,-208 862,-260 986,-260 986,-208 862,-208"/>
</g>
<g id="clust16" class="cluster">
<title>cluster_AppModule_providers</title>
<polygon fill="none" stroke="#000000" points="16,-78 16,-130 420,-130 420,-78 16,-78"/>
</g>
<!-- AppComponent -->
<g id="node1" class="node">
<title>AppComponent</title>
<polygon fill="#ffffb3" stroke="#000000" points="2051.9399,-122 1946.0601,-122 1946.0601,-86 2051.9399,-86 2051.9399,-122"/>
<text text-anchor="middle" x="1999" y="-99.8" font-family="Times,serif" font-size="14.00" fill="#000000">AppComponent</text>
</g>
<!-- AppModule -->
<g id="node11" class="node">
<title>AppModule</title>
<polygon fill="#8dd3c7" stroke="#000000" points="965.6571,-187 962.6571,-191 941.6571,-191 938.6571,-187 882.3429,-187 882.3429,-151 965.6571,-151 965.6571,-187"/>
<text text-anchor="middle" x="924" y="-164.8" font-family="Times,serif" font-size="14.00" fill="#000000">AppModule</text>
</g>
<!-- AppComponent&#45;&gt;AppModule -->
<g id="edge1" class="edge">
<title>AppComponent&#45;&gt;AppModule</title>
<path fill="none" stroke="#000000" d="M1999,-122.0908C1999,-145.1328 1999,-182 1999,-182 1999,-182 975.8113,-182 975.8113,-182"/>
<polygon fill="#000000" stroke="#000000" points="975.8114,-178.5001 965.8113,-182 975.8113,-185.5001 975.8114,-178.5001"/>
</g>
<!-- HomeComponent -->
<g id="node2" class="node">
<title>HomeComponent</title>
<polygon fill="#ffffb3" stroke="#000000" points="1928.5451,-122 1813.4549,-122 1813.4549,-86 1928.5451,-86 1928.5451,-122"/>
<text text-anchor="middle" x="1871" y="-99.8" font-family="Times,serif" font-size="14.00" fill="#000000">HomeComponent</text>
</g>
<!-- HomeComponent&#45;&gt;AppModule -->
<g id="edge2" class="edge">
<title>HomeComponent&#45;&gt;AppModule</title>
<path fill="none" stroke="#000000" d="M1871,-122.0449C1871,-143.6623 1871,-177 1871,-177 1871,-177 975.9133,-177 975.9133,-177"/>
<polygon fill="#000000" stroke="#000000" points="975.9134,-173.5001 965.9133,-177 975.9133,-180.5001 975.9134,-173.5001"/>
</g>
<!-- HeroesComponent -->
<g id="node3" class="node">
<title>HeroesComponent</title>
<polygon fill="#ffffb3" stroke="#000000" points="1795.4734,-122 1674.5266,-122 1674.5266,-86 1795.4734,-86 1795.4734,-122"/>
<text text-anchor="middle" x="1735" y="-99.8" font-family="Times,serif" font-size="14.00" fill="#000000">HeroesComponent</text>
</g>
<!-- HeroesComponent&#45;&gt;AppModule -->
<g id="edge3" class="edge">
<title>HeroesComponent&#45;&gt;AppModule</title>
<path fill="none" stroke="#000000" d="M1735,-122.2228C1735,-142.3652 1735,-172 1735,-172 1735,-172 975.8951,-172 975.8951,-172"/>
<polygon fill="#000000" stroke="#000000" points="975.8952,-168.5001 965.8951,-172 975.8951,-175.5001 975.8952,-168.5001"/>
</g>
<!-- HeroDetailComponent -->
<g id="node4" class="node">
<title>HeroDetailComponent</title>
<polygon fill="#ffffb3" stroke="#000000" points="1656.5226,-122 1513.4774,-122 1513.4774,-86 1656.5226,-86 1656.5226,-122"/>
<text text-anchor="middle" x="1585" y="-99.8" font-family="Times,serif" font-size="14.00" fill="#000000">HeroDetailComponent</text>
</g>
<!-- HeroDetailComponent&#45;&gt;AppModule -->
<g id="edge4" class="edge">
<title>HeroDetailComponent&#45;&gt;AppModule</title>
<path fill="none" stroke="#000000" d="M1585,-122.2222C1585,-140.8285 1585,-167 1585,-167 1585,-167 975.85,-167 975.85,-167"/>
<polygon fill="#000000" stroke="#000000" points="975.85,-163.5001 965.85,-167 975.8499,-170.5001 975.85,-163.5001"/>
</g>
<!-- HeroDetailOverviewComponent -->
<g id="node5" class="node">
<title>HeroDetailOverviewComponent</title>
<polygon fill="#ffffb3" stroke="#000000" points="1495.2156,-122 1296.7844,-122 1296.7844,-86 1495.2156,-86 1495.2156,-122"/>
<text text-anchor="middle" x="1396" y="-99.8" font-family="Times,serif" font-size="14.00" fill="#000000">HeroDetailOverviewComponent</text>
</g>
<!-- HeroDetailOverviewComponent&#45;&gt;AppModule -->
<g id="edge5" class="edge">
<title>HeroDetailOverviewComponent&#45;&gt;AppModule</title>
<path fill="none" stroke="#000000" d="M1396,-122.0336C1396,-139.0597 1396,-162 1396,-162 1396,-162 975.8869,-162 975.8869,-162"/>
<polygon fill="#000000" stroke="#000000" points="975.8869,-158.5001 965.8869,-162 975.8868,-165.5001 975.8869,-158.5001"/>
</g>
<!-- HeroDetailSkillComponent -->
<g id="node6" class="node">
<title>HeroDetailSkillComponent</title>
<polygon fill="#ffffb3" stroke="#000000" points="1278.9762,-122 1109.0238,-122 1109.0238,-86 1278.9762,-86 1278.9762,-122"/>
<text text-anchor="middle" x="1194" y="-99.8" font-family="Times,serif" font-size="14.00" fill="#000000">HeroDetailSkillComponent</text>
</g>
<!-- HeroDetailSkillComponent&#45;&gt;AppModule -->
<g id="edge6" class="edge">
<title>HeroDetailSkillComponent&#45;&gt;AppModule</title>
<path fill="none" stroke="#000000" d="M1194,-122.2396C1194,-137.5706 1194,-157 1194,-157 1194,-157 975.8913,-157 975.8913,-157"/>
<polygon fill="#000000" stroke="#000000" points="975.8913,-153.5001 965.8913,-157 975.8912,-160.5001 975.8913,-153.5001"/>
</g>
<!-- PageNotFoundComponent -->
<g id="node7" class="node">
<title>PageNotFoundComponent</title>
<polygon fill="#ffffb3" stroke="#000000" points="1090.8243,-122 925.1757,-122 925.1757,-86 1090.8243,-86 1090.8243,-122"/>
<text text-anchor="middle" x="1008" y="-99.8" font-family="Times,serif" font-size="14.00" fill="#000000">PageNotFoundComponent</text>
</g>
<!-- PageNotFoundComponent&#45;&gt;AppModule -->
<g id="edge7" class="edge">
<title>PageNotFoundComponent&#45;&gt;AppModule</title>
<path fill="none" stroke="#000000" d="M945.5831,-122.1061C945.5831,-122.1061 945.5831,-140.991 945.5831,-140.991"/>
<polygon fill="#000000" stroke="#000000" points="942.0832,-140.9909 945.5831,-150.991 949.0832,-140.991 942.0832,-140.9909"/>
</g>
<!-- FormdataComponent -->
<g id="node8" class="node">
<title>FormdataComponent</title>
<polygon fill="#ffffb3" stroke="#000000" points="907.486,-122 772.514,-122 772.514,-86 907.486,-86 907.486,-122"/>
<text text-anchor="middle" x="840" y="-99.8" font-family="Times,serif" font-size="14.00" fill="#000000">FormdataComponent</text>
</g>
<!-- FormdataComponent&#45;&gt;AppModule -->
<g id="edge8" class="edge">
<title>FormdataComponent&#45;&gt;AppModule</title>
<path fill="none" stroke="#000000" d="M894.8324,-122.1061C894.8324,-122.1061 894.8324,-140.991 894.8324,-140.991"/>
<polygon fill="#000000" stroke="#000000" points="891.3325,-140.9909 894.8324,-150.991 898.3325,-140.991 891.3325,-140.9909"/>
</g>
<!-- DatatableComponent -->
<g id="node9" class="node">
<title>DatatableComponent</title>
<polygon fill="#ffffb3" stroke="#000000" points="754.4692,-122 619.5308,-122 619.5308,-86 754.4692,-86 754.4692,-122"/>
<text text-anchor="middle" x="687" y="-99.8" font-family="Times,serif" font-size="14.00" fill="#000000">DatatableComponent</text>
</g>
<!-- DatatableComponent&#45;&gt;AppModule -->
<g id="edge9" class="edge">
<title>DatatableComponent&#45;&gt;AppModule</title>
<path fill="none" stroke="#000000" d="M687,-122.2396C687,-137.5706 687,-157 687,-157 687,-157 872.1747,-157 872.1747,-157"/>
<polygon fill="#000000" stroke="#000000" points="872.1747,-160.5001 882.1747,-157 872.1747,-153.5001 872.1747,-160.5001"/>
</g>
<!-- MyFilter -->
<g id="node10" class="node">
<title>MyFilter</title>
<polygon fill="#ffffb3" stroke="#000000" points="601.7746,-122 536.2254,-122 536.2254,-86 601.7746,-86 601.7746,-122"/>
<text text-anchor="middle" x="569" y="-99.8" font-family="Times,serif" font-size="14.00" fill="#000000">MyFilter</text>
</g>
<!-- MyFilter&#45;&gt;AppModule -->
<g id="edge10" class="edge">
<title>MyFilter&#45;&gt;AppModule</title>
<path fill="none" stroke="#000000" d="M569,-122.0336C569,-139.0597 569,-162 569,-162 569,-162 872.2331,-162 872.2331,-162"/>
<polygon fill="#000000" stroke="#000000" points="872.2331,-165.5001 882.2331,-162 872.233,-158.5001 872.2331,-165.5001"/>
</g>
<!-- AppComponent  -->
<g id="node13" class="node">
<title>AppComponent </title>
<polygon fill="#80b1d3" stroke="#000000" points="978.439,-252 869.561,-252 869.561,-216 978.439,-216 978.439,-252"/>
<text text-anchor="middle" x="924" y="-229.8" font-family="Times,serif" font-size="14.00" fill="#000000">AppComponent </text>
</g>
<!-- AppModule&#45;&gt;AppComponent  -->
<g id="edge12" class="edge">
<title>AppModule&#45;&gt;AppComponent </title>
<path fill="none" stroke="#000000" stroke-dasharray="1,5" d="M924,-187.1061C924,-187.1061 924,-205.991 924,-205.991"/>
<polygon fill="#000000" stroke="#000000" points="920.5001,-205.9909 924,-215.991 927.5001,-205.991 920.5001,-205.9909"/>
</g>
<!-- appRoutes -->
<g id="node12" class="node">
<title>appRoutes</title>
<polygon fill="#8dd3c7" stroke="#000000" points="511.6011,-122 508.6011,-126 487.6011,-126 484.6011,-122 436.3989,-122 436.3989,-86 511.6011,-86 511.6011,-122"/>
<text text-anchor="middle" x="474" y="-99.8" font-family="Times,serif" font-size="14.00" fill="#000000">appRoutes</text>
</g>
<!-- appRoutes&#45;&gt;AppModule -->
<g id="edge11" class="edge">
<title>appRoutes&#45;&gt;AppModule</title>
<path fill="none" stroke="#000000" d="M474,-122.2222C474,-140.8285 474,-167 474,-167 474,-167 872.0692,-167 872.0692,-167"/>
<polygon fill="#000000" stroke="#000000" points="872.0692,-170.5001 882.0692,-167 872.0692,-163.5001 872.0692,-170.5001"/>
</g>
<!-- ConfigService -->
<g id="node14" class="node">
<title>ConfigService</title>
<ellipse fill="#fdb462" stroke="#000000" cx="345" cy="-104" rx="66.6325" ry="18"/>
<text text-anchor="middle" x="345" y="-99.8" font-family="Times,serif" font-size="14.00" fill="#000000">ConfigService</text>
</g>
<!-- ConfigService&#45;&gt;AppModule -->
<g id="edge13" class="edge">
<title>ConfigService&#45;&gt;AppModule</title>
<path fill="none" stroke="#000000" d="M345,-122.2228C345,-142.3652 345,-172 345,-172 345,-172 871.8934,-172 871.8934,-172"/>
<polygon fill="#000000" stroke="#000000" points="871.8934,-175.5001 881.8934,-172 871.8933,-168.5001 871.8934,-175.5001"/>
</g>
<!-- ApiService -->
<g id="node15" class="node">
<title>ApiService</title>
<ellipse fill="#fdb462" stroke="#000000" cx="206" cy="-104" rx="54.4508" ry="18"/>
<text text-anchor="middle" x="206" y="-99.8" font-family="Times,serif" font-size="14.00" fill="#000000">ApiService</text>
</g>
<!-- ApiService&#45;&gt;AppModule -->
<g id="edge14" class="edge">
<title>ApiService&#45;&gt;AppModule</title>
<path fill="none" stroke="#000000" d="M206,-122.0449C206,-143.6623 206,-177 206,-177 206,-177 872.2938,-177 872.2938,-177"/>
<polygon fill="#000000" stroke="#000000" points="872.2939,-180.5001 882.2938,-177 872.2938,-173.5001 872.2939,-180.5001"/>
</g>
<!-- UtilService -->
<g id="node16" class="node">
<title>UtilService</title>
<ellipse fill="#fdb462" stroke="#000000" cx="79" cy="-104" rx="55.0285" ry="18"/>
<text text-anchor="middle" x="79" y="-99.8" font-family="Times,serif" font-size="14.00" fill="#000000">UtilService</text>
</g>
<!-- UtilService&#45;&gt;AppModule -->
<g id="edge15" class="edge">
<title>UtilService&#45;&gt;AppModule</title>
<path fill="none" stroke="#000000" d="M79,-122.0908C79,-145.1328 79,-182 79,-182 79,-182 872.0963,-182 872.0963,-182"/>
<polygon fill="#000000" stroke="#000000" points="872.0964,-185.5001 882.0963,-182 872.0963,-178.5001 872.0964,-185.5001"/>
</g>
</g>
</svg>
